\relax 
\@input{section/covereng.aux}
\@writefile{toc}{\contentsline {chapter}{COVER}{i}}
\@input{section/dedication.aux}
\@input{section/pengesahan.aux}
\@writefile{toc}{\contentsline {chapter}{LEMBAR PENGESAHAN LAPORAN}{iii}}
\@input{section/pernyataan.aux}
\@writefile{toc}{\contentsline {chapter}{LEMBAR PERNYATAAN}{iv}}
\@input{section/halaman.aux}
\@writefile{toc}{\contentsline {chapter}{HALAMAN PERNYATAAN}{v}}
\@input{section/abstrak.aux}
\@writefile{toc}{\contentsline {chapter}{ABSTRAK}{vi}}
\@input{section/abstract.aux}
\@writefile{toc}{\contentsline {chapter}{\textit  {ABSTRACT}}{vii}}
\@input{section/acknowlegements.aux}
\@writefile{toc}{\contentsline {chapter}{KATA PENGANTAR}{viii}}
\@writefile{toc}{\contentsline {chapter}{DAFTAR ISI}{ix}}
\@writefile{toc}{\contentsline {chapter}{DAFTAR GAMBAR}{xiii}}
\@writefile{toc}{\contentsline {chapter}{DAFTAR TABEL}{xiv}}
\@writefile{toc}{\contentsline {chapter}{DAFTAR SIMBOL}{xv}}
\@input{section/simbol.aux}
\@input{section/singkatan.aux}
\@input{section/chapter1.aux}
\@writefile{toc}{\contentsline {chapter}{DAFTAR SINGKATAN}{1}}
\@input{section/chapter2.aux}
\@input{section/chapter3.aux}
\@input{section/chapter4.aux}
\@input{section/chapter5.aux}
\@input{section/chapter6.aux}
\bibdata{references}
\bibstyle{plain}
\@input{section/appendix1.aux}
\@writefile{toc}{\contentsline {chapter}{Daftar Pustaka}{50}}
\@input{section/appendix2.aux}
