\relax 
\@writefile{toc}{\contentsline {chapter}{\numberline {III}Gambaran Objek Studi}{11}}
\@writefile{lof}{\addvspace {10\p@ }}
\@writefile{lot}{\addvspace {10\p@ }}
\@writefile{toc}{\contentsline {section}{\numberline {3.1}Objek Studi}{11}}
\@writefile{toc}{\contentsline {subsection}{\numberline {3.1.1}Informasi Perusahaan}{11}}
\@writefile{toc}{\contentsline {subsection}{\numberline {3.1.2}Visi Dan Misi Perusahaan}{11}}
\@writefile{toc}{\contentsline {subsubsection}{\numberline {3.1.2.1}Visi Perusahaan}{11}}
\@writefile{toc}{\contentsline {subsubsection}{\numberline {3.1.2.2}Misi Perusahaan}{11}}
\providecommand*\caption@xref[2]{\@setref\relax\@undefined{#1}}
\newlabel{bps}{{\caption@xref {bps}{ on input line 4}}{11}}
\@writefile{lof}{\contentsline {figure}{\numberline {3.1}{\ignorespaces Badan Pusat Statistik\relax }}{11}}
\@writefile{toc}{\contentsline {section}{\numberline {3.2}Referensi Data}{12}}
\@writefile{toc}{\contentsline {subsection}{\numberline {3.2.1}Referensi Data Primer}{12}}
\@writefile{toc}{\contentsline {subsection}{\numberline {3.2.2}Referensi Data Sekunder}{12}}
\@setckpt{section/chapter3}{
\setcounter{page}{13}
\setcounter{equation}{0}
\setcounter{enumi}{3}
\setcounter{enumii}{0}
\setcounter{enumiii}{0}
\setcounter{enumiv}{0}
\setcounter{footnote}{0}
\setcounter{mpfootnote}{0}
\setcounter{part}{0}
\setcounter{chapter}{3}
\setcounter{section}{2}
\setcounter{subsection}{2}
\setcounter{subsubsection}{0}
\setcounter{paragraph}{0}
\setcounter{subparagraph}{0}
\setcounter{figure}{1}
\setcounter{table}{0}
\setcounter{caption@flags}{0}
\setcounter{ContinuedFloat}{0}
\setcounter{lstnumber}{1}
\setcounter{LT@tables}{1}
\setcounter{LT@chunks}{1}
\setcounter{lstlisting}{0}
}
