\relax 
\citation{permai2018linear}
\@writefile{toc}{\contentsline {chapter}{\numberline {IV}Metodologi Penelitian}{13}}
\@writefile{lof}{\addvspace {10\p@ }}
\@writefile{lot}{\addvspace {10\p@ }}
\@writefile{toc}{\contentsline {section}{\numberline {4.1}Flowchart Metodologi Penelitian}{13}}
\@writefile{lof}{\contentsline {figure}{\numberline {4.1}{\ignorespaces Flowchart Metodologi\relax }}{13}}
\@writefile{toc}{\contentsline {section}{\numberline {4.2}Deskripsi Metodologi}{13}}
\@writefile{toc}{\contentsline {subsection}{\numberline {4.2.1}Identifikasi Masalah dan Tujuan}{13}}
\@writefile{toc}{\contentsline {subsection}{\numberline {4.2.2}Pengumpulan Data}{14}}
\@writefile{lot}{\contentsline {table}{\numberline {4.1}{\ignorespaces Data Produksi Padi\relax }}{14}}
\@writefile{toc}{\contentsline {section}{\numberline {4.3}Analisis}{14}}
\@writefile{toc}{\contentsline {subsection}{\numberline {4.3.1}Regresi Linear}{14}}
\@writefile{toc}{\contentsline {subsubsection}{\numberline {4.3.1.1}Mengidentifikasi Variabel}{14}}
\citation{syrstad2013excel}
\@writefile{toc}{\contentsline {subsubsection}{\numberline {4.3.1.2}Membuat Tabel}{15}}
\@writefile{toc}{\contentsline {subsubsection}{\numberline {4.3.1.3}Menghitung koefisien (a) dan (b)}{15}}
\@writefile{toc}{\contentsline {subsubsection}{\numberline {4.3.1.4}Melakukan Peramalan}{15}}
\@writefile{toc}{\contentsline {subsubsection}{\numberline {4.3.1.5}Menghitung Hasil MSE}{15}}
\@writefile{toc}{\contentsline {subsection}{\numberline {4.3.2}\textit  {Exponential Smoothing}}{16}}
\@writefile{toc}{\contentsline {subsubsection}{\numberline {4.3.2.1}Studi Kepustakaan}{16}}
\@writefile{toc}{\contentsline {subsubsection}{\numberline {4.3.2.2}Menentukan Topik Permasalahan}{16}}
\@writefile{toc}{\contentsline {subsubsection}{\numberline {4.3.2.3}Pengumpulan Data}{16}}
\@writefile{toc}{\contentsline {subsubsection}{\numberline {4.3.2.4}Menghitung \textit  {Eksponential} Tunggal}{16}}
\@writefile{toc}{\contentsline {subsubsection}{\numberline {4.3.2.5}Menghitung \textit  {Exponential} Ganda}{16}}
\@writefile{toc}{\contentsline {subsubsection}{\numberline {4.3.2.6}Menghitung Koefisien A Dan B}{17}}
\@writefile{toc}{\contentsline {subsubsection}{\numberline {4.3.2.7}Menghitung Tren Peramalan F}{17}}
\@writefile{toc}{\contentsline {subsubsection}{\numberline {4.3.2.8}Menghitung Nilai Kesalahan E}{17}}
\@writefile{toc}{\contentsline {subsubsection}{\numberline {4.3.2.9}Menghitung MSE}{18}}
\@writefile{toc}{\contentsline {subsubsection}{\numberline {4.3.2.10}Penentuan Bentuk Peralaman Ft+m}{18}}
\@writefile{toc}{\contentsline {subsection}{\numberline {4.3.3}Desain}{18}}
\@writefile{toc}{\contentsline {subsection}{\numberline {4.3.4}Implementasi}{18}}
\@writefile{toc}{\contentsline {subsection}{\numberline {4.3.5}Kesimpulan}{18}}
\@setckpt{section/chapter4}{
\setcounter{page}{19}
\setcounter{equation}{10}
\setcounter{enumi}{2}
\setcounter{enumii}{0}
\setcounter{enumiii}{0}
\setcounter{enumiv}{0}
\setcounter{footnote}{0}
\setcounter{mpfootnote}{0}
\setcounter{part}{0}
\setcounter{chapter}{4}
\setcounter{section}{3}
\setcounter{subsection}{5}
\setcounter{subsubsection}{0}
\setcounter{paragraph}{0}
\setcounter{subparagraph}{0}
\setcounter{figure}{1}
\setcounter{table}{1}
\setcounter{caption@flags}{2}
\setcounter{ContinuedFloat}{0}
\setcounter{lstnumber}{1}
\setcounter{LT@tables}{1}
\setcounter{LT@chunks}{1}
\setcounter{lstlisting}{0}
}
