\relax 
\citation{ardiana1sistem}
\citation{rosadi2014sistem}
\citation{syafruddin2014metode}
\citation{suryanto2019penerapan}
\citation{triyanto2006analisis}
\citation{suryanto2019penerapan}
\citation{files2016regression}
\@writefile{toc}{\contentsline {chapter}{\numberline {I}Pendahuluan}{1}}
\@writefile{lof}{\addvspace {10\p@ }}
\@writefile{lot}{\addvspace {10\p@ }}
\@writefile{toc}{\contentsline {section}{\numberline {1.1}Identifikasi Masalah}{3}}
\@writefile{toc}{\contentsline {section}{\numberline {1.2}Tujuan dan Manfaat}{3}}
\@writefile{toc}{\contentsline {section}{\numberline {1.3}Ruang Lingkup}{3}}
\@setckpt{section/chapter1}{
\setcounter{page}{4}
\setcounter{equation}{0}
\setcounter{enumi}{3}
\setcounter{enumii}{0}
\setcounter{enumiii}{0}
\setcounter{enumiv}{0}
\setcounter{footnote}{0}
\setcounter{mpfootnote}{0}
\setcounter{part}{0}
\setcounter{chapter}{1}
\setcounter{section}{3}
\setcounter{subsection}{0}
\setcounter{subsubsection}{0}
\setcounter{paragraph}{0}
\setcounter{subparagraph}{0}
\setcounter{figure}{0}
\setcounter{table}{0}
\setcounter{caption@flags}{0}
\setcounter{ContinuedFloat}{0}
\setcounter{lstnumber}{1}
\setcounter{LT@tables}{1}
\setcounter{LT@chunks}{1}
\setcounter{lstlisting}{0}
}
